[gd_scene load_steps=5 format=3 uid="uid://bavb3sjix48m2"]

[ext_resource type="Texture2D" uid="uid://2esvevdaqbtu" path="res://plates/USA/output-1718115815-1.jpg" id="1_stl4l"]
[ext_resource type="Script" path="res://plate.gd" id="2_qva53"]

[sub_resource type="StyleBoxFlat" id="StyleBoxFlat_ck80j"]

[sub_resource type="Theme" id="Theme_2m7ey"]
Button/styles/pressed = SubResource("StyleBoxFlat_ck80j")

[node name="plate" type="Button" groups=["plates"]]
size_flags_horizontal = 3
size_flags_vertical = 3
theme = SubResource("Theme_2m7ey")
toggle_mode = true
icon = ExtResource("1_stl4l")
icon_alignment = 1
expand_icon = true
script = ExtResource("2_qva53")
